{
	"prefix": "&8(&3&lFAWE&8)&7 {0}",
	"fawe.error": "&c{0}",
	"fawe.info": "&7{0}",
	"fawe.debug": "&3{0}",

	"fawe.worldedit.history.find.element": "&8 - &2{0}: {1} &7ago &3{2}m &6{3} &c/{4}",
	"fawe.worldedit.history.find.hover": "{0} blocks changed, click for more info",
	
	"fawe.info.lighting.propagate.selection": "Lighting has been propogated in {0} chunks. (Note: To remove light use //removelight)",
	"fawe.info.updated.lighting.selection": "Lighting has been updated in {0} chunks. (It may take a second for the packets to send)",
	"fawe.info.set.region": "Selection set to your current allowed region",
	
	"fawe.info.worldedit.command.limit": "Please wait until your current action completes",
	"fawe.info.worldedit.delayed": "Please wait while we process your FAWE action...",
	"fawe.info.worldedit.run": "Apologies for the delay. Now executing: {0}",
	"fawe.info.worldedit.complete": "Edit completed.",
	"fawe.info.require.selection.in.mask": "&7{0} of your selection is not within your mask. You can only make edits within allowed regions.",
	"fawe.info.worldedit.volume": "&7You cannot select a volume of {0}. The maximum volume you can modify is {1}.",
	"fawe.info.worldedit.iterations": "You cannot iterate {0} times. The maximum number of iterations allowed is {1}.",
	"fawe.info.worldedit.unsafe": "&7Access to that command has been blocked",
	"fawe.info.worldedit.dangerous.worldedit": "&cProcessed unsafe edit at {0} by {1}",

	"fawe.error.worldedit.extend": "&cYour edit may have extended outside your allowed region.",

	"fawe.info.worldedit.toggle.tips.on": "Disabled FAWE tips.",
	"fawe.info.worldedit.toggle.tips.off": "Enabled FAWE tips.",
	"fawe.info.worldedit.bypassed": "Currently bypassing FAWE restriction.",
	"fawe.info.worldedit.unmasked": "&6Your FAWE edits are now unrestricted.",
	"fawe.info.worldedit.restricted": "Your FAWE edits are now restricted.",
	"fawe.info.worldedit.oom.admin": "Possible options:\n - //fast\n - Do smaller edits\n - Allocate more memory\n - Disable `max-memory-percent`",
	"fawe.info.compressed": "History compressed. Saved ~ {0}b ({1}x smaller)",

	"fawe.error.web.unauthorized": "Only links from the configured web host is allowed: {0}",

	"fawe.info.action.complete": "Action completed in {0} seconds",

	"fawe.web.generating.link": "Uploading {0}, please wait...",
	"fawe.web.generating.link.failed": "Failed to generate download link!",
	"fawe.web.download.link": "{0}",

	"fawe.worldedit.general.mask.disabled": "Global mask disabled",
	"fawe.worldedit.general.mask": "Global mask set",
	"fawe.worldedit.general.texture.disabled": "Texturing reset",
	"fawe.worldedit.general.texture.set": "Set texturing to {1}",
	"fawe.worldedit.general.source.mask.disabled": "Global source mask disabled",
	"fawe.worldedit.general.source.mask": "Global source mask set",
	"fawe.worldedit.general.transform.disabled": "Global transform disabled",
	"fawe.worldedit.general.transform": "Global transform set",

	"fawe.worldedit.copy.command.copy": "{0} blocks were copied.",

	"fawe.worldedit.cut.command.cut.slow": "{0} blocks were cut.",
	"fawe.worldedit.cut.command.cut.lazy": "{0} blocks will be removed on paste",

	"fawe.worldedit.paste.command.paste": "The clipboard has been pasted at {0}",

	"fawe.worldedit.rotate.command.rotate": "The clipboard has been rotated",

	"fawe.worldedit.flip.command.flipped": "The clipboard has been flipped",

	"fawe.worldedit.regen.command.regen.0": "Region regenerated.",
	"fawe.worldedit.regen.command.regen.1": "Region regenerated.",
	"fawe.worldedit.regen.command.regen.2": "Region regenerated.",

	"fawe.worldedit.tree.command.tree": "{0} trees created.",
	"fawe.worldedit.tree.command.pumpkin": "{0} pumpkin patches created.",

	"fawe.worldedit.flora.command.flora": "{0} flora created.",

	"fawe.worldedit.history.command.history.clear": "History cleared",
	"fawe.worldedit.history.command.redo.error": "Nothing left to redo. (See also `/inspect` and `/frb`)",
	"fawe.worldedit.history.command.history.other.error": "Unable to find session for {0}.",
	"fawe.worldedit.history.command.redo.success": "Redo successful{0}.",
	"fawe.worldedit.history.command.undo.error": "Nothing left to undo. (See also `/inspect` and `/frb`)",
	"fawe.worldedit.history.command.undo.disabled": "Undo disabled, use: //fast",
	"fawe.worldedit.history.command.undo.success": "Undo successful{0}.",

	"fawe.worldedit.operation.operation": "Operation queued ({0})",

	"fawe.worldedit.selection.selection.wand": "Left click: select pos #1; Right click: select pos #2",

	"fawe.worldedit.navigation.navigation.wand.error": "Nothing to pass through",

	"fawe.worldedit.selection.selection.wand.disable": "Edit wand disabled.",
	"fawe.worldedit.selection.selection.wand.enable": "Edit wand enabled.",
	"fawe.worldedit.selection.selection.chunk": "Chunk selected ({0})",
	"fawe.worldedit.selection.selection.chunks": "Chunks selected ({0}) - ({1})",
	"fawe.worldedit.selection.selection.contract": "Region contracted {0} blocks.",
	"fawe.worldedit.selection.selection.count": "Counted {0} blocks.",
	"fawe.worldedit.selection.selection.distr": "# total blocks: {0}",
	"fawe.worldedit.selection.selection.expand": "Region expanded {0} blocks",
	"fawe.worldedit.selection.selection.expand.vert": "Region expanded {0} blocks (top to bottom)",
	"fawe.worldedit.selection.selection.inset": "Region inset",
	"fawe.worldedit.selection.selection.outset": "Region outset",
	"fawe.worldedit.selection.selection.shift": "Region shifted",
	"fawe.worldedit.selection.selection.cleared": "Selection cleared",

	"fawe.worldedit.anvil.world.is.loaded": "The world shouldn't be in use when executing. Unload the world, or use use -f to override (save first)",

	"fawe.worldedit.brush.brush.reset": "Reset your brush. (SHIFT + Click)",
	"fawe.worldedit.brush.brush.none": "You aren't holding a brush!",
	"fawe.worldedit.brush.brush.scroll.action.set": "Set scroll action to {0}",
	"fawe.worldedit.brush.brush.scroll.action.unset": "Removed scroll action",
	"fawe.worldedit.brush.brush.visual.mode.set": "Set visual mode to {0}",
	"fawe.worldedit.brush.brush.target.mode.set": "Set target mode to {0}",
	"fawe.worldedit.brush.brush.target.mask.set": "Set target mask to {0}",
	"fawe.worldedit.brush.brush.target.offset.set": "Set target offset to {0}",
	"fawe.worldedit.brush.brush.equipped": "Equipped brush {0}",
	"fawe.worldedit.brush.brush.try.other": "There are other more suitable brushes e.g.,\n - //br height [radius=5] [#clipboard|file=null] [rotation=0] [yscale=1.00]",
	"fawe.worldedit.brush.brush.copy": "Left click the base of an object to copy, right click to paste. Increase the brush radius if necessary.",
	"fawe.worldedit.brush.brush.height.invalid": "Invalid height map file ({0})",
	"fawe.worldedit.brush.brush.smooth": "Note: Use the blend brush if you want to smooth overhangs or caves.",
	"fawe.worldedit.brush.brush.spline": "Click to add a point, click the same spot to finish",
	"fawe.worldedit.brush.brush.line.primary": "Added point {0}, click another position to create the line",
	"fawe.worldedit.brush.brush.catenary.direction": "Added point {0}, click the direction you want to create the spline",
	"fawe.worldedit.brush.brush.line.secondary": "Created spline",
	"fawe.worldedit.brush.brush.spline.primary.2": "Added position, Click the same spot to join!",
	"fawe.worldedit.brush.brush.spline.secondary.error": "Not enough positions set!",
	"fawe.worldedit.brush.brush.spline.secondary": "Created spline",
	"fawe.worldedit.brush.brush.size": "Brush size set",
	"fawe.worldedit.brush.brush.range": "Brush size set",
	"fawe.worldedit.brush.brush.mask.disabled": "Brush mask disabled",
	"fawe.worldedit.brush.brush.mask": "Brush mask set",
	"fawe.worldedit.brush.brush.source.mask.disabled": "Brush source mask disabled",
	"fawe.worldedit.brush.brush.source.mask": "Brush source mask set",
	"fawe.worldedit.brush.brush.transform.disabled": "Brush transform disabled",
	"fawe.worldedit.brush.brush.transform": "Brush transform set",
	"fawe.worldedit.brush.brush.material": "Brush material set",

	"fawe.worldedit.rollback.rollback.element": "Undoing {0}",

	"fawe.worldedit.tool.tool.inspect": "Inspect tool bound to {0}.",
	"fawe.worldedit.tool.tool.inspect.info": "{0} changed {1} to {2} {3} ago",
	"fawe.worldedit.tool.tool.inspect.info.footer": "Total: {0} changes",
	"fawe.worldedit.tool.tool.none": "Tool unbound from your current item.",
	"fawe.worldedit.tool.tool.info": "Info tool bound to {0}.",
	"fawe.worldedit.tool.tool.tree": "Tree tool bound to {0}.",
	"fawe.worldedit.tool.tool.tree.error.block": "A tree can't go here",
	"fawe.worldedit.tool.tool.tree.error": "Tree type {0} is unknown.",
	"fawe.worldedit.tool.tool.repl": "Block replacer tool bound to {0}.",
	"fawe.worldedit.tool.tool.cycler": "Block data cycler tool bound to {0}.",
	"fawe.worldedit.tool.tool.flood.fill": "Block flood fill tool bound to {0}.",
	"fawe.worldedit.tool.tool.range.error": "Maximum range: {0}.",
	"fawe.worldedit.tool.tool.radius.error": "Maximum allowed brush radius: {0}.",
	"fawe.worldedit.tool.tool.deltree": "Floating tree remover tool bound to {0}.",
	"fawe.worldedit.tool.tool.deltree.error": "That's not a tree",
	"fawe.worldedit.tool.tool.deltree.floating.error": "That's not a floating tree",
	"fawe.worldedit.tool.tool.farwand": "Far wand tool bound to {0}.",
	"fawe.worldedit.tool.tool.lrbuild.bound": "Long-range building tool bound to {0}.",
	"fawe.worldedit.tool.tool.lrbuild.info": "Left-click set to {0}; right-click set to {1}.",
	"fawe.worldedit.tool.superpickaxe.enabled": "Super Pickaxe enabled.",
	"fawe.worldedit.tool.superpickaxe.disabled": "Super Pickaxe disabled.",
	"fawe.worldedit.tool.superpickaxe.area.enabled": "Mode changed. Left click with a pickaxe. // to disable.",

	"fawe.worldedit.snapshot.snapshot.loaded": "Snapshot '{0}' loaded; now restoring...",
	"fawe.worldedit.snapshot.snapshot.set": "Snapshot set to: {0}",
	"fawe.worldedit.snapshot.snapshot.newest": "Now using newest snapshot.",
	"fawe.worldedit.snapshot.snapshot.list.header": "Snapshots for world ({0}):",
	"fawe.worldedit.snapshot.snapshot.list.footer": "Use /snap use [snapshot] or /snap use latest.",
	"fawe.worldedit.snapshot.snapshot.not.configured": "Snapshot/backup restore is not configured.",
	"fawe.worldedit.snapshot.snapshot.not.available": "No snapshots are available. See console for details.",
	"fawe.worldedit.snapshot.snapshot.not.found.world": "No snapshots were found for this world.",
	"fawe.worldedit.snapshot.snapshot.not.found": "No snapshots were found.",
	"fawe.worldedit.snapshot.snapshot.invalid.index": "Invalid index, must be equal or higher then 1.",
	"fawe.worldedit.snapshot.snapshot.error.date": "Could not detect the date inputted.",
	"fawe.worldedit.snapshot.snapshot.error.restore": "Errors prevented any blocks from being restored.",
	"fawe.worldedit.snapshot.snapshot.error.restore.chunks": "No chunks could be loaded. (Bad archive?)",

	"fawe.worldedit.biome.biome.list.header": "Biomes (page {0}/{1}):",
	"fawe.worldedit.biome.biome.changed": "Biomes were changed in {0} columns.",

	"fawe.worldedit.general.fast.enabled": "Fast mode enabled. History and edit restrictions will be bypassed.",
	"fawe.worldedit.general.fast.disabled": "Fast mode disabled",
	"fawe.worldedit.general.place.enabled": "Now placing at pos #1.",
	"fawe.worldedit.general.place.disabled": "Now placing at the block you stand in.",

	"fawe.worldedit.utility.kill.success": "Killed {0} entities in a radius of {1}.",
	"fawe.worldedit.utility.nothing.confirmed": "You have no actions pending confirmation.",

	"fawe.worldedit.schematic.schematic.prompt.clear": "You may want to use {0} to clear your current clipboard first",
	"fawe.worldedit.schematic.schematic.show": "Displaying {0} schematics from {1}:\n - Left click a structure to set your clipboard\n - Right click to add a structure to your multi-clipboard\n - Use {2} to go back to the world",
	"fawe.worldedit.schematic.schematic.format": "Available formats (Name: Lookup names)",
	"fawe.worldedit.schematic.schematic.move.exists": "{0} already exists",
	"fawe.worldedit.schematic.schematic.move.success": "{0} -> {1}",
	"fawe.worldedit.schematic.schematic.move.failed": "{0} no moved: {1}",
	"fawe.worldedit.schematic.schematic.loaded": "{0} loaded. Paste it with //paste",
	"fawe.worldedit.schematic.schematic.saved": "{0} saved.",

	"fawe.worldedit.schematic.schematic.page": "Page must be {0}",
	"fawe.worldedit.schematic.schematic.none": "No files found.",

	"fawe.worldedit.schematic.schematic.list": "Available files (Filename: Format) [{0}/{1}]:",
	"fawe.worldedit.schematic.schematic.list.elem": " - {0} - {1}",

	"fawe.worldedit.clipboard.clipboard.uri.not.found": "You do not have {0} loaded",
	"fawe.worldedit.clipboard.clipboard.cleared": "Clipboard cleared",
	"fawe.worldedit.clipboard.clipboard.invalid.format": "Unknown clipboard format:  {0}",

	"fawe.worldedit.visitor.visitor.block": "{0} blocks affected",
	"fawe.worldedit.visitor.visitor.entity": "{0} entities affected",
	"fawe.worldedit.visitor.visitor.flat": "{0} columns affected",

	"fawe.worldedit.selector.selector.fuzzy.pos1": "Region set and expanded from {0} {1}.",
	"fawe.worldedit.selector.selector.fuzzy.pos2": "Added expansion of {0} {1}.",
	"fawe.worldedit.selector.selector.pos": "pos{0} set to {1} ({2}).",
	"fawe.worldedit.selector.selector.center": "Center set to {0} ({1}).",
	"fawe.worldedit.selector.selector.radius": "Radius set to {0} ({1}).",
	"fawe.worldedit.selector.selector.expanded": "Expanded region to {0} ({1})",
	"fawe.worldedit.selector.selector.invalid.coordinates": "Invalid coordinates {0}",
	"fawe.worldedit.selector.selector.already.set": "Position already set.",
	"fawe.worldedit.selector.selector.set.default": "Your default region selector is now {0}.",

	"fawe.worldedit.timezone.timezone.set": "Timezone set for this session to: {0}",
	"fawe.worldedit.timezone.timezone.display": "The current time in that timezone is:  {0}",

	"fawe.worldedit.cycler.block.cycler.cannot.cycle": "That block's data cannot be cycled!",
	"fawe.worldedit.cycler.block.cycler.limit": "Max blocks change limit reached.",
	"fawe.worldedit.cycler.block.cycler.no.perm": "You are not permitted to cycle the data value of that block.",

	"fawe.worldedit.command.command.invalid.syntax": "The command was not used properly (no more help available).",

	"fawe.worldedit.help.command.clarifying.bracket": "Added clarifying bracket for {0}",
	"fawe.worldedit.help.help.suggest": "Couldn't find {0}. Maybe try one of {1} ?",
	"fawe.worldedit.help.help.header.categories": "Command Types",
	"fawe.worldedit.help.help.header.subcommands": "Subcommands",
	"fawe.worldedit.help.help.header.command": "Help for: {0}",
	"fawe.worldedit.help.help.item.allowed": "{0} - {1}",
	"fawe.worldedit.help.help.item.denied": "{0} - {1}",
	"fawe.worldedit.help.help.header": "Help: page {0}/{1}",
	"fawe.worldedit.help.help.footer": "Wiki: https://git.io/vSKE5",

	"fawe.worldedit.utility.page.footer": "Use {0} to go to the next page",

	"fawe.progress.progress.message": "{1}/{0} ({2}%) @{3}cps {4}s left",
	"fawe.progress.progress.finished": "[ Done! ]",

	"fawe.error.command.syntax": "Usage: {0}",
	"fawe.error.no.perm": "You are lacking the permission node: {0}",
	"fawe.error.block.not.allowed": "You are not allowed to use",
	"fawe.error.setting.disable": "Lacking setting: {0}",
	"fawe.error.brush.not.found": "Available brushes: {0}",
	"fawe.error.brush.incompatible": "Brush not compatible with this version",
	"fawe.error.schematic.not.found": "Schematic not found: {0}",
	"fawe.error.no.region": "You have no current allowed region",
	"fawe.error.no.mask": "You have no current mask set",
	"fawe.error.not.player": "You must be a player to perform this action!",
	"fawe.error.player.not.found": "Player not found: {0}",
	"fawe.error.oom": "[Critical] Detected low memory i.e. < 1%. We will take the following actions:\n - Terminate WE block placement\n - Clear WE history\n - Unload non essential chunks\n - Kill entities\n - Garbage collect\nIgnore this if trying to crash server.\nNote: Low memory is likely (but not necessarily) caused by WE",
	"fawe.error.worldedit.some.fails": "{0} blocks weren't placed because they were outside your allowed region.",
	"fawe.error.worldedit.some.fails.blockbag": "Missing blocks: {0}",

	"fawe.cancel.worldedit.cancel.count": "Cancelled {0} edits.",
	"fawe.cancel.worldedit.cancel.reason.confirm": "Use //confirm to execute {2}",
	"fawe.cancel.worldedit.cancel.reason.confirm.region": "Your selection is large ({0} -> {1}, containing {3} blocks). Use //confirm to execute {2}",
	"fawe.cancel.worldedit.cancel.reason": "Your WorldEdit action was cancelled: {0}.",
	"fawe.cancel.worldedit.cancel.reason.manual": "Manual cancellation",
	"fawe.cancel.worldedit.cancel.reason.low.memory": "Low memory",
	"fawe.cancel.worldedit.cancel.reason.max.changes": "Too many blocks changed",
	"fawe.cancel.worldedit.cancel.reason.max.checks": "Too many block checks",
	"fawe.cancel.worldedit.cancel.reason.max.tiles": "Too many block entities",
	"fawe.cancel.worldedit.cancel.reason.max.entities": "Too many entities",
	"fawe.cancel.worldedit.cancel.reason.max.iterations": "Max iterations",
	"fawe.cancel.worldedit.cancel.reason.outside.level": "Outside world",
	"fawe.cancel.worldedit.cancel.reason.outside.region": "Outside allowed region (bypass with /wea, or disable `region-restrictions` in config.yml)",
	"fawe.cancel.worldedit.cancel.reason.no.region": "No allowed region (bypass with /wea, or disable `region-restrictions` in config.yml)",
	"fawe.cancel.worldedit.failed.load.chunk": "Skipped loading chunk: {0};{1}. Try increasing chunk-wait.",

	"fawe.navigation.ascend.fail": "No free spot above you found.",
	"fawe.navigation.ascended.plural": "Ascended {0} levels.",
	"fawe.navigation.ascended.singular": "Ascended a level.",
	"fawe.navigation.unstuck": "There you go!",
	"fawe.navigation.descend.fail": "No free spot below you found.",
	"fawe.navigation.descend.plural": "Descended {0} levels.",
	"fawe.navigation.descend.singular": "Descended a level.",
	"fawe.navigation.whoosh": "Whoosh!",
	"fawe.navigation.poof": "Poof!",
	"fawe.navigation.thru.fail": "No free spot ahead of you found.",
	"fawe.navigation.no.block": "No block in sight! (or too far)",
	"fawe.navigation.up.fail": "You would hit something above you.",

	"fawe.selection.sel.cuboid": "Cuboid: left click for point 1, right click for point 2",
	"fawe.selection.sel.cuboid.extend": "Cuboid: left click for a starting point, right click to extend",
	"fawe.selection.sel.2d.polygon": "2D polygon selector: Left/right click to add a point.",
	"fawe.selection.sal.ellipsoid": "Ellipsoid selector: left click=center, right click to extend",
	"fawe.selection.sel.sphere": "Sphere selector: left click=center, right click to set radius",
	"fawe.selection.sel.cylindrical": "Cylindrical selector: Left click=center, right click to extend.",
	"fawe.selection.sel.max": "{0} points maximum.",
	"fawe.selection.sel.fuzzy": "Fuzzy selector: Left click to select all contingent blocks, right click to add. To select an air cavity, use //pos1.",
	"fawe.selection.sel.convex.polyhedral": "Convex polyhedral selector: Left click=First vertex, right click to add more.",
	"fawe.selection.sel.list": "For a list of selection types use: //sel list",
	"fawe.selection.sel.modes": "Select one of the modes below:",

	"fawe.worldedit.scripting.scripting.no.perm": "You do not have permission to execute this craft script",
	"fawe.worldedit.scripting.scripting.cs": "Use /cs with a script name first.",
	"fawe.worldedit.scripting.scripting.error": "An error occured while executing a craft script",

	"fawe.tips.tip.sel.list": "Tip: See the different selection modes with //sel list",
	"fawe.tips.tip.select.connected": "Tip: Select all connected blocks with //sel fuzzy",
	"fawe.tips.tip.set.pos1": "Tip: Use pos1 as a pattern with //set pos1",
	"fawe.tips.tip.farwand": "Tip: Select distant points with //farwand",
	"fawe.tips.tip.discord": "Need help using FAWE? https://discord.gg/ngZCzbU",
	"fawe.tips.tip.lazycut": "Tip: It is safer to use //lazycut",
	"fawe.tips.tip.fast": "Tip: Set fast and without undo using //fast",
	"fawe.tips.tip.cancel": "Tip: You can //cancel an edit in progress",
	"fawe.tips.tip.mask": "Tip: Set a global destination mask with /gmask",
	"fawe.tips.tip.mask.angle": "Tip: Replace upward slopes of 3-20 blocks using //replace /[-20][-3] bedrock",
	"fawe.tips.tip.set.linear": "Tip: Set blocks linearly with //set #l3d[wood,bedrock]",
	"fawe.tips.tip.surface.spread": "Tip: Spread a flat surface with //set #surfacespread[5][0][5][#existing]",
	"fawe.tips.tip.set.hand": "Tip: Use your current hand with //set hand",
	"fawe.tips.tip.replace.regex": "Tip: Replace using regex: //replace .*_log <pattern>",
	"fawe.tips.tip.replace.regex.2": "Tip: Replace using regex: //replace .*stairs[facing=(north|south)] <pattern>",
	"fawe.tips.tip.replace.regex.3": "Tip: Replace using operators: //replace water[level>2] sand",
	"fawe.tips.tip.replace.regex.4": "Tip: Replace using operators: //replace true *[waterlogged=false]",
	"fawe.tips.tip.replace.regex.5": "Tip: Replace using operators: //replace true *[level-=1]",
	"fawe.tips.tip.replace.id": "Tip: Replace only the block id: //replace woodenstair #id[cobblestair]",
	"fawe.tips.tip.replace.light": "Tip: Remove light sources with //replace #brightness[1][15] 0",
	"fawe.tips.tip.tab.complete": "Tip: The replace command supports tab completion",
	"fawe.tips.tip.flip": "Tip: Mirror with //flip",
	"fawe.tips.tip.deform": "Tip: Reshape with //deform",
	"fawe.tips.tip.transform": "Tip: Set a transform with //gtransform",
	"fawe.tips.tip.copypaste": "Tip: Paste on click with //br copypaste",
	"fawe.tips.tip.source.mask": "Tip: Set a source mask with /gsmask <mask>",
	"fawe.tips.tip.replace.marker": "Tip: Replace a block with your full clipboard using //replace wool #fullcopy",
	"fawe.tips.tip.paste": "Tip: Place with //paste",
	"fawe.tips.tip.lazycopy": "Tip: lazycopy is faster",
	"fawe.tips.tip.download": "Tip: Try out //download",
	"fawe.tips.tip.rotate": "Tip: Orientate with //rotate",
	"fawe.tips.tip.copy.pattern": "Tip: To use as a pattern try #copy",
	"fawe.tips.tip.regen.0": "Tip: Use a biome with /regen [biome]",
	"fawe.tips.tip.regen.1": "Tip: Use a seed with /regen [biome] [seed]",
	"fawe.tips.tip.biome.pattern": "Tip: The #biome[forest] pattern can be used in any command",
	"fawe.tips.tip.biome.mask": "Tip: Restrict to a biome with the `$jungle` mask",
	
    "worldedit.expand.description.vert": "Vertically expand the selection to world limits.",
    "worldedit.expand.expanded": "Region expanded {0} blocks",
    "worldedit.expand.expanded.vert": "Region expanded {0} blocks (top-to-bottom).",

    "worldedit.biomeinfo.lineofsight": "Biomes at line of sight point: {0}",
    "worldedit.biomeinfo.position": "Biomes at your position: {0}",
    "worldedit.biomeinfo.selection": "Biomes in your selection: {0}",

    "worldedit.brush.radius-too-large": "Maximum allowed brush radius: {0}",
    "worldedit.brush.apply.description": "Apply brush, apply a function to every block",
    "worldedit.brush.apply.radius": "The size of the brush",
    "worldedit.brush.apply.shape": "The shape of the region",
    "worldedit.brush.apply.type": "Type of brush to use",
    "worldedit.brush.apply.item.warning": "This brush simulates item usages. Its effects may not work on all platforms, may not be undo-able, and may cause strange interactions with other mods/plugins. Use at your own risk.",
    "worldedit.brush.paint.description": "Paint brush, apply a function to a surface",
    "worldedit.brush.paint.size": "The size of the brush",
    "worldedit.brush.paint.shape": "The shape of the region",
    "worldedit.brush.paint.density": "The density of the brush",
    "worldedit.brush.paint.type": "Type of brush to use",
    "worldedit.brush.paint.item.warning": "This brush simulates item usages. Its effects may not work on all platforms, may not be undo-able, and may cause strange interactions with other mods/plugins. Use at your own risk.",
    "worldedit.brush.sphere.equip": "Sphere brush shape equipped ({0}).",
    "worldedit.brush.cylinder.equip": "Cylinder brush shape equipped ({0} by {1}).",
    "worldedit.brush.clipboard.equip": "Clipboard brush shape equipped.",
    "worldedit.brush.smooth.equip": "Smooth brush equipped ({0} x {1}x using {2}).",
    "worldedit.brush.extinguish.equip": "Extinguisher equipped ({0}).",
    "worldedit.brush.gravity.equip": "Gravity brush equipped ({0}).",
    "worldedit.brush.butcher.equip": "Butcher brush equipped ({0}).",
    "worldedit.brush.operation.equip": "Set brush to {0}.",
    "worldedit.brush.none.equip": "Brush unbound from your current item.",

    "worldedit.setbiome.changed": "Biomes were changed in {0} columns. You may have to rejoin your game (or close and reopen your world) to see a change.",

    "worldedit.drawsel.disabled": "Server CUI disabled.",
    "worldedit.drawsel.enabled": "Server CUI enabled. This only supports cuboid regions, with a maximum size of 32x32x32.",
    "worldedit.drawsel.disabled.already": "Server CUI already disabled.",
    "worldedit.drawsel.enabled.already": "Server CUI already enabled.",
    "worldedit.limit.too-high": "Your maximum allowable limit is {0}.",
    "worldedit.limit.set": "Block change limit set to {0}.",
    "worldedit.limit.return-to-default": "(Use //limit to go back to the default.)",
    "worldedit.timeout.too-high": "Your maximum allowable timeout is {0}ms.",
    "worldedit.timeout.set": "Timeout time set to {0} ms.",
    "worldedit.timeout.return-to-default": " (Use //timeout to go back to the default.)",
    "worldedit.fast.disabled": "Fast mode disabled.",
    "worldedit.fast.enabled": "Fast mode enabled. Lighting in the affected chunks may be wrong and/or you may need to rejoin to see changes.",
    "worldedit.fast.disabled.already": "Fast mode already disabled.",
    "worldedit.fast.enabled.already": "Fast mode already enabled.",
    "worldedit.reorder.current": "The reorder mode is {0}",
    "worldedit.reorder.set": "The reorder mode is now {0}",
    "worldedit.gmask.disabled": "Global mask disabled.",
    "worldedit.gmask.set": "Global mask set.",
    "worldedit.toggleplace.pos1": "Now placing at pos #1.",
    "worldedit.toggleplace.player": "Now placing at the block you stand in.",
    "worldedit.searchitem.too-short": "Enter a longer search string (len > 2).",
    "worldedit.searchitem.either-b-or-i": "You cannot use both the 'b' and 'i' flags simultaneously.",
    "worldedit.searchitem.searching": "(Please wait... searching items.)",
    "worldedit.watchdog.no-hook": "This platform has no watchdog hook.",
    "worldedit.watchdog.active.already": "Watchdog hook already active.",
    "worldedit.watchdog.inactive.already": "Watchdog hook already inactive.",
    "worldedit.watchdog.active": "Watchdog hook now active.",
    "worldedit.watchdog.inactive": "Watchdog hook now inactive.",
    "worldedit.world.remove": "Removed world override.",
    "worldedit.world.set": "Set the world override to {0}. (Use //world to go back to default)",

    "worldedit.undo.undone": "Undid {0} available edits.",
    "worldedit.undo.none": "Nothing left to undo.",
    "worldedit.redo.undone": "Redid {0} available edits.",
    "worldedit.redo.none": "Nothing left to redo.",
    "worldedit.clearhistory.cleared": "History cleared.",

    "worldedit.raytrace.noblock": "No block in sight!",

    "worldedit.restore.not-configured": "Snapshot/backup restore is not configured.",
    "worldedit.restore.not-available": "That snapshot does not exist or is not available.",
    "worldedit.restore.failed": "Failed to load snapshot: {0}",
    "worldedit.restore.loaded": "Snapshot '{0}' loaded; now restoring...",
    "worldedit.restore.restored": "Restored; {0} missing chunks and {1} other errors.",
    "worldedit.restore.none-for-world": "No snapshots were found for this world.",
    "worldedit.restore.none-found": "No snapshots were found.",
    "worldedit.restore.none-found-console": "No snapshots were found. See console for details.",
    "worldedit.restore.chunk-not-present": "Chunks were not present in snapshot.",
    "worldedit.restore.chunk-load-failed": "No chunks could be loaded. (Bad archive?)",
    "worldedit.restore.block-place-failed": "Errors prevented any blocks from being restored.",
    "worldedit.restore.block-place-error": "Last error: {0}",

    "worldedit.snapshot.use.newest": "Now using newest snapshot.",
    "worldedit.snapshot.use": "Snapshot set to: {0}",
    "worldedit.snapshot.none-before": "Couldn't find a snapshot before {0}.",
    "worldedit.snapshot.none-after": "Couldn't find a snapshot after {0}.",
    "worldedit.snapshot.index-above-0": "Invalid index, must be equal or higher then 1.",
    "worldedit.snapshot.index-oob": "Invalid index, must be between 1 and {0}.",

    "worldedit.schematic.unknown-format": "Unknown schematic format: {0}.",
    "worldedit.schematic.load.does-not-exist": "Schematic {0} does not exist!",
    "worldedit.schematic.load.loading": "(Please wait... loading schematic.)",
    "worldedit.schematic.save.already-exists": "That schematic already exists. Use the -f flag to overwrite it.",
    "worldedit.schematic.save.failed-directory": "Could not create folder for schematics!",
    "worldedit.schematic.save.saving": "(Please wait... saving schematic.)",
	"worldedit.schematic.delete.empty": "Schematic {0} not found!",
    "worldedit.schematic.delete.does-not-exist": "Schematic {0} does not exist!",
    "worldedit.schematic.delete.failed": "Deletion of {0} failed! Is it read-only?",
    "worldedit.schematic.delete.deleted": "{0} has been deleted.",
    "worldedit.schematic.formats.title": "Available clipboard formats (Name: Lookup names)",

    "worldedit.pos.already-set": "Position already set.",
    "worldedit.pos.console-require-coords": "You must provide coordinates as console.",
    "worldedit.hpos.no-block": "No block in sight!",
    "worldedit.hpos.already-set": "Position already set.",
    "worldedit.chunk.selected-multiple": "Chunks selected: ({0}, {1}) - ({2}, {3})",
    "worldedit.chunk.selected": "Chunk selected: {0}, {1}",
    "worldedit.wand.invalid": "Wand item is mis-configured or disabled.",
    "worldedit.wand.selwand.info": "Left click: select pos #1; Right click: select pos #2",
    "worldedit.wand.navwand.info": "Left click: jump to location; Right click: pass through walls",
    "worldedit.contract.contracted": "Region contracted {0} blocks.",
    "worldedit.shift.shifted": "Region shifted.",
    "worldedit.outset.outset": "Region outset.",
    "worldedit.inset.inset": "Region inset.",
    "worldedit.size.offset": "{0}: {1} @ {2} ({3} blocks)",
    "worldedit.size.type": "Type: {0}",
    "worldedit.size.size": "Size: {0}",
    "worldedit.size.distance": "Cuboid distance: {0}",
    "worldedit.size.blocks": "# of blocks: {0}",
    "worldedit.count.counted": "Counted: {0}",
    "worldedit.distr.no-blocks": "No blocks counted.",
    "worldedit.distr.no-previous": "No previous distribution.",
    "worldedit.distr.total": "Total Block Count: {0}",
    "worldedit.select.cleared": "Selection cleared.",
    "worldedit.select.cuboid.message": "Cuboid: left click for point 1, right click for point 2",
    "worldedit.select.cuboid.description": "Select two corners of a cuboid",
    "worldedit.select.extend.message": "Cuboid: left click for a starting point, right click to extend",
    "worldedit.select.extend.description": "Fast cuboid selection mode",
    "worldedit.select.poly.message": "2D polygon selector: Left/right click to add a point.",
    "worldedit.select.poly.limit-message": "{0} points maximum.",
    "worldedit.select.poly.description": "Select a 2D polygon with height",
    "worldedit.select.ellipsoid.message": "Ellipsoid selector: left click=center, right click to extend",
    "worldedit.select.ellipsoid.description": "Select an ellipsoid",
    "worldedit.select.sphere.message": "Sphere selector: left click=center, right click to set radius",
    "worldedit.select.sphere.description": "Select a sphere",
    "worldedit.select.cyl.message": "Cylindrical selector: Left click=center, right click to extend",
    "worldedit.select.cyl.description": "Select a cylinder",
    "worldedit.select.convex.message": "Convex polyhedral selector: Left click=First vertex, right click to add more.",
    "worldedit.select.convex.limit-message": "{0} points maximum.",
    "worldedit.select.convex.description": "Select a convex polyhedral",
    "worldedit.select.default-set": "Your default region selector is now {0}.",

    "worldedit.chunkinfo.chunk": "Chunk: {0}, {1}",
    "worldedit.chunkinfo.old-filename": "Old format: {0}",
    "worldedit.chunkinfo.mcregion-filename": "McRegion: region/{0}",
    "worldedit.listchunks.listfor": "Listing chunks for: {0}",

    "worldedit.drain.drained": "{0} blocks have been drained.",
    "worldedit.fill.created": "{0} blocks have been filled.",
    "worldedit.fillr.created": "{0} blocks have been filled.",
    "worldedit.fixlava.fixed": "{0} blocks have been fixed.",
    "worldedit.fixwater.fixed": "{0} blocks have been fixed.",
    "worldedit.removeabove.removed": "{0} blocks have been removed.",
    "worldedit.removebelow.removed": "{0} blocks have been removed.",
    "worldedit.removenear.removed": "{0} blocks have been removed.",
    "worldedit.replacenear.replaced": "{0} bloků bylo replacenuto.",
    "worldedit.snow.created": "{0} surfaces have been covered.",
    "worldedit.thaw.removed": "{0} blocks have been thawed.",
    "worldedit.green.changed": "{0} blocks have been greened.",
    "worldedit.extinguish.removed": "{0} fires have been extinguished.",
    "worldedit.butcher.killed": "{0} mobs have been killed in a radius of {1}.",
    "worldedit.butcher.explain-all": "Use -1 to remove all mobs in loaded chunks",
    "worldedit.remove.removed": "{0} entities have been marked for removal.",
    "worldedit.remove.explain-all": "Use -1 to remove all entities in loaded chunks",
    "worldedit.calc.invalid": "'{0}' could not be parsed as a valid expression",

    "worldedit.paste.pasted": "The clipboard has been pasted at {0}",
    "worldedit.paste.selected": "Selected clipboard paste region.",
	
    "worldedit.rotate.no-interpolation": "Note: Interpolation is not yet supported, so angles that are multiples of 90 is recommended.",
    "worldedit.rotate.rotated": "The clipboard copy has been rotated.",
    "worldedit.flip.flipped": "The clipboard copy has been flipped.",
    "worldedit.clearclipboard.cleared": "Clipboard cleared.",

    "worldedit.set.done": "Operace dokončena.",
    "worldedit.set.done.verbose": "Operace dokončena ({0}).",
    "worldedit.line.changed": "{0} bloků bylo změněno.",
    "worldedit.line.cuboid-only": "//line only works with cuboid selections",
    "worldedit.curve.changed": "{0} bloků bylo změněno.",
    "worldedit.curve.convex-only": "//curve only works with convex polyhedral selections",
    "worldedit.replace.replaced": "{0} bloků bylo replacenuto.",
    "worldedit.stack.changed": "{0} bloků bylo změněno. Změnu vrátíš zpět pomocí //undo",
    "worldedit.regen.regenerated": "Region regenerated.",
    "worldedit.walls.changed": "{0} blocks have been changed.",
    "worldedit.faces.changed": "{0} blocks have been changed.",
    "worldedit.overlay.overlaid": "{0} blocks have been overlaid.",
    "worldedit.naturalize.naturalized": "{0} block(s) have been made to look more natural.",
    "worldedit.center.changed": "Center set. ({0} blocks changed)",
    "worldedit.smooth.changed": "Terrain's height map smoothed. {0} blocks changed.",
    "worldedit.move.moved": "{0} blocks moved.",
    "worldedit.deform.deformed": "{0} blocks have been deformed.",
    "worldedit.hollow.changed": "{0} blocks have been changed.",
    "worldedit.forest.created": "{0} trees created.",
    "worldedit.flora.created": "{0} flora created.",

    "worldedit.unstuck.moved": "There you go!",
    "worldedit.ascend.obstructed": "No free spot above you found.",
    "worldedit.ascend.moved": "Ascended {0} levels.",
    "worldedit.descend.obstructed": "No free spot below you found.",
    "worldedit.descend.moved": "Descended {0} levels.",
    "worldedit.ceil.obstructed": "No free spot above you found.",
    "worldedit.ceil.moved": "Woosh!",
    "worldedit.thru.obstructed": "No free spot ahead of you found.",
    "worldedit.thru.moved": "Woosh!",
    "worldedit.jumpto.moved": "Poof!",
    "worldedit.jumpto.none": "No block in sight (or too far away)!",
    "worldedit.up.obstructed": "You would hit something above you.",
    "worldedit.up.moved": "Woosh!",

    "worldedit.cyl.invalid-radius": "You must either specify 1 or 2 radius values.",
    "worldedit.cyl.created": "{0} blocks have been created.",
    "worldedit.sphere.invalid-radius": "You must either specify 1 or 3 radius values.",
    "worldedit.sphere.created": "{0} blocks have been created.",
    "worldedit.forestgen.created": "{0} trees created.",
    "worldedit.pumpkins.created": "{0} pumpkin patches created.",
    "worldedit.pyramid.created": "{0} blocks have been created.",
    "worldedit.generate.created": "{0} blocks have been created.",
    "worldedit.generate.changed": "{0} columns affected.",

    "worldedit.reload.config": "Configuration reloaded!",
    "worldedit.report.written": "FAWE report written to {0}",
    "worldedit.report.error": "Failed to write report: {0}",
    "worldedit.report.callback": "FAWE report: {0}.report",
    "worldedit.timezone.invalid": "Invalid timezone",
    "worldedit.timezone.set": "Timezone set for this session to: {0}",
    "worldedit.timezone.current": "The current time in that timezone is: {0}",
    "worldedit.version.version": "FAWE version:\n - Date {0}\n - Commit {1}\n - Build {2}\n - Platform {3}",

    "worldedit.command.time-elapsed": "{0}s elapsed (history: {1} changed; {2} blocks/sec).",
    "worldedit.command.permissions": "You are not permitted to do that. Are you in the right mode?",
    "worldedit.command.player-only": "This command must be used with a player.",
    "worldedit.command.error.report": "Please report this error: [See console]",
    "worldedit.pastebin.uploading": "(Please wait... uploading paste...)",
    "worldedit.session.cant-find-session": "Unable to find session for {0}",
    "worldedit.platform.no-file-dialog": "File dialogs are not supported in your environment.",

    "worldedit.tool.max-block-changes": "Max blocks change limit reached.",
    "worldedit.tool.no-block": "No block in sight!",
    "worldedit.tool.repl.equip": "Block replacer tool bound to {0}.",
    "worldedit.tool.repl.switched": "Replacer tool switched to: {0}",
    "worldedit.tool.data-cycler.equip": "Block data cycler tool bound to {0}.",
    "worldedit.tool.data-cycler.block-not-permitted": "You are not permitted to cycle the data value of that block.",
    "worldedit.tool.data-cycler.cant-cycle": "That block's data cannot be cycled!",
    "worldedit.tool.data-cycler.new-value": "Value of {0} is now {1}.",
    "worldedit.tool.data-cycler.cycling": "Now cycling {0}.",
    "worldedit.tool.deltree.equip": "Floating tree remover tool bound to {0}.",
    "worldedit.tool.deltree.not-tree": "That's not a tree.",
    "worldedit.tool.deltree.not-floating": "That's not a floating tree.",
    "worldedit.tool.tree.equip": "Tree tool bound to {0}.",
    "worldedit.tool.tree.obstructed": "A tree can't go there.",
    "worldedit.tool.info.equip": "Info tool bound to {0}.",
	"worldedit.tool.inspect.equip": "Inspect tool bound to {0}.",
    "worldedit.tool.info.blockstate.hover": "Block state",
    "worldedit.tool.info.internalid.hover": "Internal ID",
    "worldedit.tool.info.light.hover": "Block Light/Light Above",
    "worldedit.tool.none.equip": "Tool unbound from your current item.",
    "worldedit.tool.selwand.equip": "Selection wand bound to {0}.",
    "worldedit.tool.navwand.equip": "Navigation wand bound to {0}.",
    "worldedit.tool.floodfill.equip": "Block flood fill tool bound to {0}.",
    "worldedit.tool.farwand.equip": "Far wand tool bound to {0}.",
    "worldedit.tool.lrbuild.equip": "Long-range building tool bound to {0}.",
    "worldedit.tool.lrbuild.set": "Left-click set to {0}; right-click set to {1}.",

    "worldedit.tool.superpickaxe.mode.single": "Mode is now single. Left click with a pickaxe. // to disable.",
    "worldedit.tool.superpickaxe.mode.area": "Mode is now area. Left click with a pickaxe. // to disable.",
    "worldedit.tool.superpickaxe.mode.recursive": "Mode is now recursive. Left click with a pickaxe. // to disable.",
    "worldedit.tool.superpickaxe.max-range": "Maximum range is {0}.",
    "worldedit.tool.superpickaxe.enabled.already": "Super pickaxe already enabled.",
    "worldedit.tool.superpickaxe.disabled.already": "Super pickaxe already disabled.",
    "worldedit.tool.superpickaxe.enabled": "Super pickaxe enabled.",
    "worldedit.tool.superpickaxe.disabled": "Super pickaxe disabled.",
    "worldedit.tool.mask.set": "Brush mask set.",
    "worldedit.tool.mask.disabled": "Brush mask disabled.",
    "worldedit.tool.material.set": "Brush material set.",
    "worldedit.tool.range.set": "Brush range set.",
    "worldedit.tool.size.set": "Brush size set.",
    "worldedit.tool.tracemask.set": "Trace mask set.",
    "worldedit.tool.tracemask.disabled": "Trace mask disabled.",

    "worldedit.execute.script-permissions": "You don't have permission to use that script.",
    "worldedit.executelast.no-script": "Use /cs with a script name first.",
    "worldedit.script.read-error": "Script read error: {0}",
    "worldedit.script.unsupported": "Only .js scripts are currently supported",
    "worldedit.script.file-not-found": "Script does not exist: {0}",
    "worldedit.script.no-script-engine": "Failed to find an installed script engine.\nPlease see https://worldedit.enginehub.org/en/latest/usage/other/craftscripts/",
    "worldedit.script.failed": "Failed to execute: {0}",
    "worldedit.script.failed-console": "Failed to execute (see console): {0}",

    "worldedit.operation.affected.biome": "{0} biomes affected",
    "worldedit.operation.affected.block": "{0} blocks affected",
    "worldedit.operation.affected.column": "{0} columns affected",
    "worldedit.operation.affected.entity": "{0} entities affected",
    "worldedit.operation.deform.expression": "deformed using {0}",

    "worldedit.selection.convex.info.vertices": "Vertices: {0}",
    "worldedit.selection.convex.info.triangles": "Triangles: {0}",
    "worldedit.selection.convex.explain.primary": "Started new selection with vertex {0}.",
    "worldedit.selection.convex.explain.secondary": "Added vertex {0} to the selection.",
    "worldedit.selection.cuboid.info.pos1": "Position 1: {0}",
    "worldedit.selection.cuboid.info.pos2": "Position 2: {0}",
    "worldedit.selection.cuboid.explain.primary": "První pozice vybrána na {0}.",
    "worldedit.selection.cuboid.explain.primary-area": "První pozice vybrána na {0} ({1}).",
    "worldedit.selection.cuboid.explain.secondary": "Sekundární pozice vybrána na {0}.",
    "worldedit.selection.cuboid.explain.secondary-area": "Sekundární pozice vybrána na {0} ({1}).",
    "worldedit.selection.extend.explain.primary": "Started selection at {0} ({1}).",
    "worldedit.selection.extend.explain.secondary": "Extended selection to encompass {0} ({1}).",
    "worldedit.selection.ellipsoid.info.center": "Center: {0}",
    "worldedit.selection.ellipsoid.info.radius": "X/Y/Z Radius: {0}",
    "worldedit.selection.ellipsoid.explain.primary": "Center position set to {0}.",
    "worldedit.selection.ellipsoid.explain.primary-area": "Center position set to {0} ({1}).",
    "worldedit.selection.ellipsoid.explain.secondary": "Radius set to {0}.",
    "worldedit.selection.ellipsoid.explain.secondary-area": "Radius set to {0} ({1}).",
    "worldedit.selection.cylinder.info.center": "Center: {0}",
    "worldedit.selection.cylinder.info.radius": "Radius: {0}",
    "worldedit.selection.cylinder.explain.primary": "Starting a new cylindrical selection at {0}.",
    "worldedit.selection.cylinder.explain.secondary": "Radius set to {0}/{1} blocks. ({2})",
    "worldedit.selection.cylinder.explain.secondary-missing": "You must select the center point before setting the radius.",
    "worldedit.selection.polygon2d.info": "# points: {0}",
    "worldedit.selection.polygon2d.explain.primary": "Starting a new polygon at {0}.",
    "worldedit.selection.polygon2d.explain.secondary": "Added point #{0} at {1}.",
    "worldedit.selection.sphere.explain.secondary": "Radius set to {0}.",
    "worldedit.selection.sphere.explain.secondary-defined": "Radius set to {0} ({1}).",

    "worldedit.help.command-not-found": "The command '{0}' could not be found.",
    "worldedit.help.no-subcommands": "'{0}' has no sub-commands. (Maybe '{1}' is for a parameter?)",
    "worldedit.help.subcommand-not-found": "The sub-command '{0}' under '{1}' could not be found.",

    "worldedit.cli.stopping": "Stopping!",
    "worldedit.cli.unknown-command": "Unknown command!"
}
